module gitlab.com/debeerbrian/Entersekt

go 1.16

require (
	github.com/go-playground/universal-translator v0.17.0 // indirect
	github.com/go-playground/validator v9.31.0+incompatible
	github.com/gorilla/mux v1.8.0
	github.com/leodido/go-urn v1.2.1 // indirect
	github.com/nicholasjackson/env v0.6.0
	gopkg.in/go-playground/assert.v1 v1.2.1 // indirect
)
